(['D:\\code\\chromarose\\chromarose\\main.py'],
 ['D:\\code\\chromarose\\chromarose'],
 [],
 ['C:\\Python311\\Lib\\site-packages\\numpy\\_pyinstaller',
  'C:\\Python311\\Lib\\site-packages\\_pyinstaller_hooks_contrib\\hooks\\stdhooks',
  'C:\\Python311\\Lib\\site-packages\\_pyinstaller_hooks_contrib\\hooks\\stdhooks\\__pycache__',
  'C:\\Python311\\Lib\\site-packages\\_pyinstaller_hooks_contrib\\hooks\\rthooks',
  'C:\\Python311\\Lib\\site-packages\\_pyinstaller_hooks_contrib\\hooks\\rthooks\\__pycache__',
  'C:\\Python311\\Lib\\site-packages\\_pyinstaller_hooks_contrib\\hooks'],
 {},
 [],
 [],
 False,
 {},
 [],
 [],
 '3.11.4 (tags/v3.11.4:d2340ef, Jun  7 2023, 05:45:37) [MSC v.1934 64 bit '
 '(AMD64)]',
 [('pyi_rth_inspect',
   'C:\\Python311\\Lib\\site-packages\\PyInstaller\\hooks\\rthooks\\pyi_rth_inspect.py',
   'PYSOURCE'),
  ('pyi_rth_pkgutil',
   'C:\\Python311\\Lib\\site-packages\\PyInstaller\\hooks\\rthooks\\pyi_rth_pkgutil.py',
   'PYSOURCE'),
  ('pyi_rth_multiprocessing',
   'C:\\Python311\\Lib\\site-packages\\PyInstaller\\hooks\\rthooks\\pyi_rth_multiprocessing.py',
   'PYSOURCE'),
  ('main', 'D:\\code\\chromarose\\chromarose\\main.py', 'PYSOURCE')],
 [('multiprocessing.popen_forkserver',
   'C:\\Python311\\Lib\\multiprocessing\\popen_forkserver.py',
   'PYMODULE'),
  ('multiprocessing.connection',
   'C:\\Python311\\Lib\\multiprocessing\\connection.py',
   'PYMODULE'),
  ('multiprocessing.resource_sharer',
   'C:\\Python311\\Lib\\multiprocessing\\resource_sharer.py',
   'PYMODULE'),
  ('multiprocessing.process',
   'C:\\Python311\\Lib\\multiprocessing\\process.py',
   'PYMODULE'),
  ('signal', 'C:\\Python311\\Lib\\signal.py', 'PYMODULE'),
  ('selectors', 'C:\\Python311\\Lib\\selectors.py', 'PYMODULE'),
  ('xmlrpc.client', 'C:\\Python311\\Lib\\xmlrpc\\client.py', 'PYMODULE'),
  ('xmlrpc', 'C:\\Python311\\Lib\\xmlrpc\\__init__.py', 'PYMODULE'),
  ('gzip', 'C:\\Python311\\Lib\\gzip.py', 'PYMODULE'),
  ('argparse', 'C:\\Python311\\Lib\\argparse.py', 'PYMODULE'),
  ('textwrap', 'C:\\Python311\\Lib\\textwrap.py', 'PYMODULE'),
  ('shutil', 'C:\\Python311\\Lib\\shutil.py', 'PYMODULE'),
  ('zipfile', 'C:\\Python311\\Lib\\zipfile.py', 'PYMODULE'),
  ('py_compile', 'C:\\Python311\\Lib\\py_compile.py', 'PYMODULE'),
  ('importlib.machinery',
   'C:\\Python311\\Lib\\importlib\\machinery.py',
   'PYMODULE'),
  ('importlib', 'C:\\Python311\\Lib\\importlib\\__init__.py', 'PYMODULE'),
  ('importlib._bootstrap',
   'C:\\Python311\\Lib\\importlib\\_bootstrap.py',
   'PYMODULE'),
  ('importlib._bootstrap_external',
   'C:\\Python311\\Lib\\importlib\\_bootstrap_external.py',
   'PYMODULE'),
  ('importlib.metadata',
   'C:\\Python311\\Lib\\importlib\\metadata\\__init__.py',
   'PYMODULE'),
  ('typing', 'C:\\Python311\\Lib\\typing.py', 'PYMODULE'),
  ('importlib.abc', 'C:\\Python311\\Lib\\importlib\\abc.py', 'PYMODULE'),
  ('importlib.resources.abc',
   'C:\\Python311\\Lib\\importlib\\resources\\abc.py',
   'PYMODULE'),
  ('importlib.resources',
   'C:\\Python311\\Lib\\importlib\\resources\\__init__.py',
   'PYMODULE'),
  ('importlib.resources._legacy',
   'C:\\Python311\\Lib\\importlib\\resources\\_legacy.py',
   'PYMODULE'),
  ('importlib.resources._common',
   'C:\\Python311\\Lib\\importlib\\resources\\_common.py',
   'PYMODULE'),
  ('importlib.resources._adapters',
   'C:\\Python311\\Lib\\importlib\\resources\\_adapters.py',
   'PYMODULE'),
  ('importlib._abc', 'C:\\Python311\\Lib\\importlib\\_abc.py', 'PYMODULE'),
  ('importlib.metadata._itertools',
   'C:\\Python311\\Lib\\importlib\\metadata\\_itertools.py',
   'PYMODULE'),
  ('importlib.metadata._functools',
   'C:\\Python311\\Lib\\importlib\\metadata\\_functools.py',
   'PYMODULE'),
  ('importlib.metadata._collections',
   'C:\\Python311\\Lib\\importlib\\metadata\\_collections.py',
   'PYMODULE'),
  ('importlib.metadata._meta',
   'C:\\Python311\\Lib\\importlib\\metadata\\_meta.py',
   'PYMODULE'),
  ('importlib.metadata._adapters',
   'C:\\Python311\\Lib\\importlib\\metadata\\_adapters.py',
   'PYMODULE'),
  ('importlib.metadata._text',
   'C:\\Python311\\Lib\\importlib\\metadata\\_text.py',
   'PYMODULE'),
  ('email.message', 'C:\\Python311\\Lib\\email\\message.py', 'PYMODULE'),
  ('email.policy', 'C:\\Python311\\Lib\\email\\policy.py', 'PYMODULE'),
  ('email.contentmanager',
   'C:\\Python311\\Lib\\email\\contentmanager.py',
   'PYMODULE'),
  ('email.quoprimime', 'C:\\Python311\\Lib\\email\\quoprimime.py', 'PYMODULE'),
  ('string', 'C:\\Python311\\Lib\\string.py', 'PYMODULE'),
  ('email.headerregistry',
   'C:\\Python311\\Lib\\email\\headerregistry.py',
   'PYMODULE'),
  ('email._header_value_parser',
   'C:\\Python311\\Lib\\email\\_header_value_parser.py',
   'PYMODULE'),
  ('urllib', 'C:\\Python311\\Lib\\urllib\\__init__.py', 'PYMODULE'),
  ('email.iterators', 'C:\\Python311\\Lib\\email\\iterators.py', 'PYMODULE'),
  ('email.generator', 'C:\\Python311\\Lib\\email\\generator.py', 'PYMODULE'),
  ('random', 'C:\\Python311\\Lib\\random.py', 'PYMODULE'),
  ('statistics', 'C:\\Python311\\Lib\\statistics.py', 'PYMODULE'),
  ('fractions', 'C:\\Python311\\Lib\\fractions.py', 'PYMODULE'),
  ('numbers', 'C:\\Python311\\Lib\\numbers.py', 'PYMODULE'),
  ('hashlib', 'C:\\Python311\\Lib\\hashlib.py', 'PYMODULE'),
  ('bisect', 'C:\\Python311\\Lib\\bisect.py', 'PYMODULE'),
  ('email._encoded_words',
   'C:\\Python311\\Lib\\email\\_encoded_words.py',
   'PYMODULE'),
  ('email.charset', 'C:\\Python311\\Lib\\email\\charset.py', 'PYMODULE'),
  ('email.encoders', 'C:\\Python311\\Lib\\email\\encoders.py', 'PYMODULE'),
  ('email.base64mime', 'C:\\Python311\\Lib\\email\\base64mime.py', 'PYMODULE'),
  ('email._policybase',
   'C:\\Python311\\Lib\\email\\_policybase.py',
   'PYMODULE'),
  ('email.header', 'C:\\Python311\\Lib\\email\\header.py', 'PYMODULE'),
  ('email.errors', 'C:\\Python311\\Lib\\email\\errors.py', 'PYMODULE'),
  ('email.utils', 'C:\\Python311\\Lib\\email\\utils.py', 'PYMODULE'),
  ('email._parseaddr', 'C:\\Python311\\Lib\\email\\_parseaddr.py', 'PYMODULE'),
  ('calendar', 'C:\\Python311\\Lib\\calendar.py', 'PYMODULE'),
  ('quopri', 'C:\\Python311\\Lib\\quopri.py', 'PYMODULE'),
  ('getopt', 'C:\\Python311\\Lib\\getopt.py', 'PYMODULE'),
  ('email', 'C:\\Python311\\Lib\\email\\__init__.py', 'PYMODULE'),
  ('email.parser', 'C:\\Python311\\Lib\\email\\parser.py', 'PYMODULE'),
  ('email.feedparser', 'C:\\Python311\\Lib\\email\\feedparser.py', 'PYMODULE'),
  ('csv', 'C:\\Python311\\Lib\\csv.py', 'PYMODULE'),
  ('importlib.readers',
   'C:\\Python311\\Lib\\importlib\\readers.py',
   'PYMODULE'),
  ('importlib.resources.readers',
   'C:\\Python311\\Lib\\importlib\\resources\\readers.py',
   'PYMODULE'),
  ('importlib.resources._itertools',
   'C:\\Python311\\Lib\\importlib\\resources\\_itertools.py',
   'PYMODULE'),
  ('tokenize', 'C:\\Python311\\Lib\\tokenize.py', 'PYMODULE'),
  ('token', 'C:\\Python311\\Lib\\token.py', 'PYMODULE'),
  ('pathlib', 'C:\\Python311\\Lib\\pathlib.py', 'PYMODULE'),
  ('contextlib', 'C:\\Python311\\Lib\\contextlib.py', 'PYMODULE'),
  ('importlib.util', 'C:\\Python311\\Lib\\importlib\\util.py', 'PYMODULE'),
  ('tarfile', 'C:\\Python311\\Lib\\tarfile.py', 'PYMODULE'),
  ('lzma', 'C:\\Python311\\Lib\\lzma.py', 'PYMODULE'),
  ('bz2', 'C:\\Python311\\Lib\\bz2.py', 'PYMODULE'),
  ('fnmatch', 'C:\\Python311\\Lib\\fnmatch.py', 'PYMODULE'),
  ('copy', 'C:\\Python311\\Lib\\copy.py', 'PYMODULE'),
  ('gettext', 'C:\\Python311\\Lib\\gettext.py', 'PYMODULE'),
  ('_compression', 'C:\\Python311\\Lib\\_compression.py', 'PYMODULE'),
  ('xml.parsers.expat',
   'C:\\Python311\\Lib\\xml\\parsers\\expat.py',
   'PYMODULE'),
  ('xml.parsers', 'C:\\Python311\\Lib\\xml\\parsers\\__init__.py', 'PYMODULE'),
  ('xml', 'C:\\Python311\\Lib\\xml\\__init__.py', 'PYMODULE'),
  ('xml.sax.expatreader',
   'C:\\Python311\\Lib\\xml\\sax\\expatreader.py',
   'PYMODULE'),
  ('xml.sax.saxutils', 'C:\\Python311\\Lib\\xml\\sax\\saxutils.py', 'PYMODULE'),
  ('urllib.request', 'C:\\Python311\\Lib\\urllib\\request.py', 'PYMODULE'),
  ('getpass', 'C:\\Python311\\Lib\\getpass.py', 'PYMODULE'),
  ('nturl2path', 'C:\\Python311\\Lib\\nturl2path.py', 'PYMODULE'),
  ('ftplib', 'C:\\Python311\\Lib\\ftplib.py', 'PYMODULE'),
  ('netrc', 'C:\\Python311\\Lib\\netrc.py', 'PYMODULE'),
  ('shlex', 'C:\\Python311\\Lib\\shlex.py', 'PYMODULE'),
  ('mimetypes', 'C:\\Python311\\Lib\\mimetypes.py', 'PYMODULE'),
  ('http.cookiejar', 'C:\\Python311\\Lib\\http\\cookiejar.py', 'PYMODULE'),
  ('http', 'C:\\Python311\\Lib\\http\\__init__.py', 'PYMODULE'),
  ('ssl', 'C:\\Python311\\Lib\\ssl.py', 'PYMODULE'),
  ('urllib.response', 'C:\\Python311\\Lib\\urllib\\response.py', 'PYMODULE'),
  ('urllib.error', 'C:\\Python311\\Lib\\urllib\\error.py', 'PYMODULE'),
  ('xml.sax', 'C:\\Python311\\Lib\\xml\\sax\\__init__.py', 'PYMODULE'),
  ('xml.sax.handler', 'C:\\Python311\\Lib\\xml\\sax\\handler.py', 'PYMODULE'),
  ('xml.sax._exceptions',
   'C:\\Python311\\Lib\\xml\\sax\\_exceptions.py',
   'PYMODULE'),
  ('xml.sax.xmlreader',
   'C:\\Python311\\Lib\\xml\\sax\\xmlreader.py',
   'PYMODULE'),
  ('urllib.parse', 'C:\\Python311\\Lib\\urllib\\parse.py', 'PYMODULE'),
  ('ipaddress', 'C:\\Python311\\Lib\\ipaddress.py', 'PYMODULE'),
  ('http.client', 'C:\\Python311\\Lib\\http\\client.py', 'PYMODULE'),
  ('decimal', 'C:\\Python311\\Lib\\decimal.py', 'PYMODULE'),
  ('_pydecimal', 'C:\\Python311\\Lib\\_pydecimal.py', 'PYMODULE'),
  ('contextvars', 'C:\\Python311\\Lib\\contextvars.py', 'PYMODULE'),
  ('datetime', 'C:\\Python311\\Lib\\datetime.py', 'PYMODULE'),
  ('_strptime', 'C:\\Python311\\Lib\\_strptime.py', 'PYMODULE'),
  ('base64', 'C:\\Python311\\Lib\\base64.py', 'PYMODULE'),
  ('hmac', 'C:\\Python311\\Lib\\hmac.py', 'PYMODULE'),
  ('tempfile', 'C:\\Python311\\Lib\\tempfile.py', 'PYMODULE'),
  ('struct', 'C:\\Python311\\Lib\\struct.py', 'PYMODULE'),
  ('socket', 'C:\\Python311\\Lib\\socket.py', 'PYMODULE'),
  ('multiprocessing.util',
   'C:\\Python311\\Lib\\multiprocessing\\util.py',
   'PYMODULE'),
  ('multiprocessing.resource_tracker',
   'C:\\Python311\\Lib\\multiprocessing\\resource_tracker.py',
   'PYMODULE'),
  ('multiprocessing.popen_fork',
   'C:\\Python311\\Lib\\multiprocessing\\popen_fork.py',
   'PYMODULE'),
  ('multiprocessing.forkserver',
   'C:\\Python311\\Lib\\multiprocessing\\forkserver.py',
   'PYMODULE'),
  ('multiprocessing.context',
   'C:\\Python311\\Lib\\multiprocessing\\context.py',
   'PYMODULE'),
  ('multiprocessing.sharedctypes',
   'C:\\Python311\\Lib\\multiprocessing\\sharedctypes.py',
   'PYMODULE'),
  ('multiprocessing.heap',
   'C:\\Python311\\Lib\\multiprocessing\\heap.py',
   'PYMODULE'),
  ('ctypes', 'C:\\Python311\\Lib\\ctypes\\__init__.py', 'PYMODULE'),
  ('ctypes._endian', 'C:\\Python311\\Lib\\ctypes\\_endian.py', 'PYMODULE'),
  ('multiprocessing.pool',
   'C:\\Python311\\Lib\\multiprocessing\\pool.py',
   'PYMODULE'),
  ('multiprocessing.dummy',
   'C:\\Python311\\Lib\\multiprocessing\\dummy\\__init__.py',
   'PYMODULE'),
  ('multiprocessing.dummy.connection',
   'C:\\Python311\\Lib\\multiprocessing\\dummy\\connection.py',
   'PYMODULE'),
  ('queue', 'C:\\Python311\\Lib\\queue.py', 'PYMODULE'),
  ('multiprocessing.queues',
   'C:\\Python311\\Lib\\multiprocessing\\queues.py',
   'PYMODULE'),
  ('multiprocessing.synchronize',
   'C:\\Python311\\Lib\\multiprocessing\\synchronize.py',
   'PYMODULE'),
  ('multiprocessing.managers',
   'C:\\Python311\\Lib\\multiprocessing\\managers.py',
   'PYMODULE'),
  ('multiprocessing.shared_memory',
   'C:\\Python311\\Lib\\multiprocessing\\shared_memory.py',
   'PYMODULE'),
  ('secrets', 'C:\\Python311\\Lib\\secrets.py', 'PYMODULE'),
  ('multiprocessing.reduction',
   'C:\\Python311\\Lib\\multiprocessing\\reduction.py',
   'PYMODULE'),
  ('pickle', 'C:\\Python311\\Lib\\pickle.py', 'PYMODULE'),
  ('pprint', 'C:\\Python311\\Lib\\pprint.py', 'PYMODULE'),
  ('dataclasses', 'C:\\Python311\\Lib\\dataclasses.py', 'PYMODULE'),
  ('inspect', 'C:\\Python311\\Lib\\inspect.py', 'PYMODULE'),
  ('dis', 'C:\\Python311\\Lib\\dis.py', 'PYMODULE'),
  ('opcode', 'C:\\Python311\\Lib\\opcode.py', 'PYMODULE'),
  ('ast', 'C:\\Python311\\Lib\\ast.py', 'PYMODULE'),
  ('_compat_pickle', 'C:\\Python311\\Lib\\_compat_pickle.py', 'PYMODULE'),
  ('multiprocessing.popen_spawn_posix',
   'C:\\Python311\\Lib\\multiprocessing\\popen_spawn_posix.py',
   'PYMODULE'),
  ('multiprocessing.popen_spawn_win32',
   'C:\\Python311\\Lib\\multiprocessing\\popen_spawn_win32.py',
   'PYMODULE'),
  ('multiprocessing.spawn',
   'C:\\Python311\\Lib\\multiprocessing\\spawn.py',
   'PYMODULE'),
  ('runpy', 'C:\\Python311\\Lib\\runpy.py', 'PYMODULE'),
  ('pkgutil', 'C:\\Python311\\Lib\\pkgutil.py', 'PYMODULE'),
  ('zipimport', 'C:\\Python311\\Lib\\zipimport.py', 'PYMODULE'),
  ('multiprocessing',
   'C:\\Python311\\Lib\\multiprocessing\\__init__.py',
   'PYMODULE'),
  ('threading', 'C:\\Python311\\Lib\\threading.py', 'PYMODULE'),
  ('_threading_local', 'C:\\Python311\\Lib\\_threading_local.py', 'PYMODULE'),
  ('stringprep', 'C:\\Python311\\Lib\\stringprep.py', 'PYMODULE'),
  ('_py_abc', 'C:\\Python311\\Lib\\_py_abc.py', 'PYMODULE'),
  ('tracemalloc', 'C:\\Python311\\Lib\\tracemalloc.py', 'PYMODULE'),
  ('numpy',
   'C:\\Python311\\Lib\\site-packages\\numpy\\__init__.py',
   'PYMODULE'),
  ('numpy.core._dtype_ctypes',
   'C:\\Python311\\Lib\\site-packages\\numpy\\core\\_dtype_ctypes.py',
   'PYMODULE'),
  ('numpy._pytesttester',
   'C:\\Python311\\Lib\\site-packages\\numpy\\_pytesttester.py',
   'PYMODULE'),
  ('numpy.testing',
   'C:\\Python311\\Lib\\site-packages\\numpy\\testing\\__init__.py',
   'PYMODULE'),
  ('numpy.testing.overrides',
   'C:\\Python311\\Lib\\site-packages\\numpy\\testing\\overrides.py',
   'PYMODULE'),
  ('numpy.lib.recfunctions',
   'C:\\Python311\\Lib\\site-packages\\numpy\\lib\\recfunctions.py',
   'PYMODULE'),
  ('numpy.lib._iotools',
   'C:\\Python311\\Lib\\site-packages\\numpy\\lib\\_iotools.py',
   'PYMODULE'),
  ('numpy.core.numeric',
   'C:\\Python311\\Lib\\site-packages\\numpy\\core\\numeric.py',
   'PYMODULE'),
  ('numpy.core._asarray',
   'C:\\Python311\\Lib\\site-packages\\numpy\\core\\_asarray.py',
   'PYMODULE'),
  ('numpy.core.arrayprint',
   'C:\\Python311\\Lib\\site-packages\\numpy\\core\\arrayprint.py',
   'PYMODULE'),
  ('numpy.core.fromnumeric',
   'C:\\Python311\\Lib\\site-packages\\numpy\\core\\fromnumeric.py',
   'PYMODULE'),
  ('numpy.core._methods',
   'C:\\Python311\\Lib\\site-packages\\numpy\\core\\_methods.py',
   'PYMODULE'),
  ('numpy.lib.stride_tricks',
   'C:\\Python311\\Lib\\site-packages\\numpy\\lib\\stride_tricks.py',
   'PYMODULE'),
  ('numpy.core._exceptions',
   'C:\\Python311\\Lib\\site-packages\\numpy\\core\\_exceptions.py',
   'PYMODULE'),
  ('numpy._utils',
   'C:\\Python311\\Lib\\site-packages\\numpy\\_utils\\__init__.py',
   'PYMODULE'),
  ('numpy._utils._convertions',
   'C:\\Python311\\Lib\\site-packages\\numpy\\_utils\\_convertions.py',
   'PYMODULE'),
  ('numpy.core._ufunc_config',
   'C:\\Python311\\Lib\\site-packages\\numpy\\core\\_ufunc_config.py',
   'PYMODULE'),
  ('numpy.core.numerictypes',
   'C:\\Python311\\Lib\\site-packages\\numpy\\core\\numerictypes.py',
   'PYMODULE'),
  ('numpy.core._dtype',
   'C:\\Python311\\Lib\\site-packages\\numpy\\core\\_dtype.py',
   'PYMODULE'),
  ('numpy.core._type_aliases',
   'C:\\Python311\\Lib\\site-packages\\numpy\\core\\_type_aliases.py',
   'PYMODULE'),
  ('numpy.core._string_helpers',
   'C:\\Python311\\Lib\\site-packages\\numpy\\core\\_string_helpers.py',
   'PYMODULE'),
  ('numpy.core.shape_base',
   'C:\\Python311\\Lib\\site-packages\\numpy\\core\\shape_base.py',
   'PYMODULE'),
  ('numpy.core.multiarray',
   'C:\\Python311\\Lib\\site-packages\\numpy\\core\\multiarray.py',
   'PYMODULE'),
  ('numpy.ma.mrecords',
   'C:\\Python311\\Lib\\site-packages\\numpy\\ma\\mrecords.py',
   'PYMODULE'),
  ('numpy.core.records',
   'C:\\Python311\\Lib\\site-packages\\numpy\\core\\records.py',
   'PYMODULE'),
  ('numpy.core.umath',
   'C:\\Python311\\Lib\\site-packages\\numpy\\core\\umath.py',
   'PYMODULE'),
  ('numpy.core.overrides',
   'C:\\Python311\\Lib\\site-packages\\numpy\\core\\overrides.py',
   'PYMODULE'),
  ('numpy._utils._inspect',
   'C:\\Python311\\Lib\\site-packages\\numpy\\_utils\\_inspect.py',
   'PYMODULE'),
  ('numpy.testing._private.extbuild',
   'C:\\Python311\\Lib\\site-packages\\numpy\\testing\\_private\\extbuild.py',
   'PYMODULE'),
  ('sysconfig', 'C:\\Python311\\Lib\\sysconfig.py', 'PYMODULE'),
  ('_aix_support', 'C:\\Python311\\Lib\\_aix_support.py', 'PYMODULE'),
  ('_bootsubprocess', 'C:\\Python311\\Lib\\_bootsubprocess.py', 'PYMODULE'),
  ('numpy.testing._private.utils',
   'C:\\Python311\\Lib\\site-packages\\numpy\\testing\\_private\\utils.py',
   'PYMODULE'),
  ('psutil',
   'C:\\Python311\\Lib\\site-packages\\psutil\\__init__.py',
   'PYMODULE'),
  ('psutil._pswindows',
   'C:\\Python311\\Lib\\site-packages\\psutil\\_pswindows.py',
   'PYMODULE'),
  ('psutil._compat',
   'C:\\Python311\\Lib\\site-packages\\psutil\\_compat.py',
   'PYMODULE'),
  ('psutil._common',
   'C:\\Python311\\Lib\\site-packages\\psutil\\_common.py',
   'PYMODULE'),
  ('__future__', 'C:\\Python311\\Lib\\__future__.py', 'PYMODULE'),
  ('doctest', 'C:\\Python311\\Lib\\doctest.py', 'PYMODULE'),
  ('pdb', 'C:\\Python311\\Lib\\pdb.py', 'PYMODULE'),
  ('pydoc', 'C:\\Python311\\Lib\\pydoc.py', 'PYMODULE'),
  ('webbrowser', 'C:\\Python311\\Lib\\webbrowser.py', 'PYMODULE'),
  ('http.server', 'C:\\Python311\\Lib\\http\\server.py', 'PYMODULE'),
  ('socketserver', 'C:\\Python311\\Lib\\socketserver.py', 'PYMODULE'),
  ('html', 'C:\\Python311\\Lib\\html\\__init__.py', 'PYMODULE'),
  ('html.entities', 'C:\\Python311\\Lib\\html\\entities.py', 'PYMODULE'),
  ('pydoc_data.topics',
   'C:\\Python311\\Lib\\pydoc_data\\topics.py',
   'PYMODULE'),
  ('pydoc_data', 'C:\\Python311\\Lib\\pydoc_data\\__init__.py', 'PYMODULE'),
  ('tty', 'C:\\Python311\\Lib\\tty.py', 'PYMODULE'),
  ('glob', 'C:\\Python311\\Lib\\glob.py', 'PYMODULE'),
  ('code', 'C:\\Python311\\Lib\\code.py', 'PYMODULE'),
  ('codeop', 'C:\\Python311\\Lib\\codeop.py', 'PYMODULE'),
  ('bdb', 'C:\\Python311\\Lib\\bdb.py', 'PYMODULE'),
  ('cmd', 'C:\\Python311\\Lib\\cmd.py', 'PYMODULE'),
  ('difflib', 'C:\\Python311\\Lib\\difflib.py', 'PYMODULE'),
  ('unittest.case', 'C:\\Python311\\Lib\\unittest\\case.py', 'PYMODULE'),
  ('unittest._log', 'C:\\Python311\\Lib\\unittest\\_log.py', 'PYMODULE'),
  ('unittest.util', 'C:\\Python311\\Lib\\unittest\\util.py', 'PYMODULE'),
  ('unittest.result', 'C:\\Python311\\Lib\\unittest\\result.py', 'PYMODULE'),
  ('platform', 'C:\\Python311\\Lib\\platform.py', 'PYMODULE'),
  ('numpy.testing._private',
   'C:\\Python311\\Lib\\site-packages\\numpy\\testing\\_private\\__init__.py',
   'PYMODULE'),
  ('unittest', 'C:\\Python311\\Lib\\unittest\\__init__.py', 'PYMODULE'),
  ('unittest.async_case',
   'C:\\Python311\\Lib\\unittest\\async_case.py',
   'PYMODULE'),
  ('unittest.signals', 'C:\\Python311\\Lib\\unittest\\signals.py', 'PYMODULE'),
  ('unittest.main', 'C:\\Python311\\Lib\\unittest\\main.py', 'PYMODULE'),
  ('unittest.runner', 'C:\\Python311\\Lib\\unittest\\runner.py', 'PYMODULE'),
  ('unittest.loader', 'C:\\Python311\\Lib\\unittest\\loader.py', 'PYMODULE'),
  ('unittest.suite', 'C:\\Python311\\Lib\\unittest\\suite.py', 'PYMODULE'),
  ('numpy.matrixlib',
   'C:\\Python311\\Lib\\site-packages\\numpy\\matrixlib\\__init__.py',
   'PYMODULE'),
  ('numpy.matrixlib.defmatrix',
   'C:\\Python311\\Lib\\site-packages\\numpy\\matrixlib\\defmatrix.py',
   'PYMODULE'),
  ('numpy.ma',
   'C:\\Python311\\Lib\\site-packages\\numpy\\ma\\__init__.py',
   'PYMODULE'),
  ('numpy.ma.extras',
   'C:\\Python311\\Lib\\site-packages\\numpy\\ma\\extras.py',
   'PYMODULE'),
  ('numpy.lib.index_tricks',
   'C:\\Python311\\Lib\\site-packages\\numpy\\lib\\index_tricks.py',
   'PYMODULE'),
  ('numpy.lib.function_base',
   'C:\\Python311\\Lib\\site-packages\\numpy\\lib\\function_base.py',
   'PYMODULE'),
  ('numpy.lib.histograms',
   'C:\\Python311\\Lib\\site-packages\\numpy\\lib\\histograms.py',
   'PYMODULE'),
  ('numpy.lib.twodim_base',
   'C:\\Python311\\Lib\\site-packages\\numpy\\lib\\twodim_base.py',
   'PYMODULE'),
  ('numpy.core.function_base',
   'C:\\Python311\\Lib\\site-packages\\numpy\\core\\function_base.py',
   'PYMODULE'),
  ('numpy.ma.core',
   'C:\\Python311\\Lib\\site-packages\\numpy\\ma\\core.py',
   'PYMODULE'),
  ('numpy.ctypeslib',
   'C:\\Python311\\Lib\\site-packages\\numpy\\ctypeslib.py',
   'PYMODULE'),
  ('numpy.core._internal',
   'C:\\Python311\\Lib\\site-packages\\numpy\\core\\_internal.py',
   'PYMODULE'),
  ('numpy.random',
   'C:\\Python311\\Lib\\site-packages\\numpy\\random\\__init__.py',
   'PYMODULE'),
  ('numpy.random._pickle',
   'C:\\Python311\\Lib\\site-packages\\numpy\\random\\_pickle.py',
   'PYMODULE'),
  ('numpy.polynomial',
   'C:\\Python311\\Lib\\site-packages\\numpy\\polynomial\\__init__.py',
   'PYMODULE'),
  ('numpy.polynomial._polybase',
   'C:\\Python311\\Lib\\site-packages\\numpy\\polynomial\\_polybase.py',
   'PYMODULE'),
  ('numpy.polynomial.laguerre',
   'C:\\Python311\\Lib\\site-packages\\numpy\\polynomial\\laguerre.py',
   'PYMODULE'),
  ('numpy.polynomial.hermite_e',
   'C:\\Python311\\Lib\\site-packages\\numpy\\polynomial\\hermite_e.py',
   'PYMODULE'),
  ('numpy.polynomial.hermite',
   'C:\\Python311\\Lib\\site-packages\\numpy\\polynomial\\hermite.py',
   'PYMODULE'),
  ('numpy.polynomial.legendre',
   'C:\\Python311\\Lib\\site-packages\\numpy\\polynomial\\legendre.py',
   'PYMODULE'),
  ('numpy.polynomial.chebyshev',
   'C:\\Python311\\Lib\\site-packages\\numpy\\polynomial\\chebyshev.py',
   'PYMODULE'),
  ('numpy.polynomial.polynomial',
   'C:\\Python311\\Lib\\site-packages\\numpy\\polynomial\\polynomial.py',
   'PYMODULE'),
  ('numpy.polynomial.polyutils',
   'C:\\Python311\\Lib\\site-packages\\numpy\\polynomial\\polyutils.py',
   'PYMODULE'),
  ('numpy.fft',
   'C:\\Python311\\Lib\\site-packages\\numpy\\fft\\__init__.py',
   'PYMODULE'),
  ('numpy.fft.helper',
   'C:\\Python311\\Lib\\site-packages\\numpy\\fft\\helper.py',
   'PYMODULE'),
  ('numpy.fft._pocketfft',
   'C:\\Python311\\Lib\\site-packages\\numpy\\fft\\_pocketfft.py',
   'PYMODULE'),
  ('numpy.linalg',
   'C:\\Python311\\Lib\\site-packages\\numpy\\linalg\\__init__.py',
   'PYMODULE'),
  ('numpy.linalg.linalg',
   'C:\\Python311\\Lib\\site-packages\\numpy\\linalg\\linalg.py',
   'PYMODULE'),
  ('numpy._typing',
   'C:\\Python311\\Lib\\site-packages\\numpy\\_typing\\__init__.py',
   'PYMODULE'),
  ('numpy._typing._array_like',
   'C:\\Python311\\Lib\\site-packages\\numpy\\_typing\\_array_like.py',
   'PYMODULE'),
  ('numpy._typing._dtype_like',
   'C:\\Python311\\Lib\\site-packages\\numpy\\_typing\\_dtype_like.py',
   'PYMODULE'),
  ('numpy._typing._shape',
   'C:\\Python311\\Lib\\site-packages\\numpy\\_typing\\_shape.py',
   'PYMODULE'),
  ('numpy._typing._scalars',
   'C:\\Python311\\Lib\\site-packages\\numpy\\_typing\\_scalars.py',
   'PYMODULE'),
  ('numpy._typing._char_codes',
   'C:\\Python311\\Lib\\site-packages\\numpy\\_typing\\_char_codes.py',
   'PYMODULE'),
  ('numpy._typing._nbit',
   'C:\\Python311\\Lib\\site-packages\\numpy\\_typing\\_nbit.py',
   'PYMODULE'),
  ('numpy._typing._nested_sequence',
   'C:\\Python311\\Lib\\site-packages\\numpy\\_typing\\_nested_sequence.py',
   'PYMODULE'),
  ('numpy.lib',
   'C:\\Python311\\Lib\\site-packages\\numpy\\lib\\__init__.py',
   'PYMODULE'),
  ('numpy.lib._version',
   'C:\\Python311\\Lib\\site-packages\\numpy\\lib\\_version.py',
   'PYMODULE'),
  ('numpy.lib.arraypad',
   'C:\\Python311\\Lib\\site-packages\\numpy\\lib\\arraypad.py',
   'PYMODULE'),
  ('numpy.lib.arrayterator',
   'C:\\Python311\\Lib\\site-packages\\numpy\\lib\\arrayterator.py',
   'PYMODULE'),
  ('numpy.lib.npyio',
   'C:\\Python311\\Lib\\site-packages\\numpy\\lib\\npyio.py',
   'PYMODULE'),
  ('numpy.lib._datasource',
   'C:\\Python311\\Lib\\site-packages\\numpy\\lib\\_datasource.py',
   'PYMODULE'),
  ('numpy.lib.format',
   'C:\\Python311\\Lib\\site-packages\\numpy\\lib\\format.py',
   'PYMODULE'),
  ('numpy.lib.arraysetops',
   'C:\\Python311\\Lib\\site-packages\\numpy\\lib\\arraysetops.py',
   'PYMODULE'),
  ('numpy.lib.utils',
   'C:\\Python311\\Lib\\site-packages\\numpy\\lib\\utils.py',
   'PYMODULE'),
  ('numpy.lib.polynomial',
   'C:\\Python311\\Lib\\site-packages\\numpy\\lib\\polynomial.py',
   'PYMODULE'),
  ('numpy.lib.ufunclike',
   'C:\\Python311\\Lib\\site-packages\\numpy\\lib\\ufunclike.py',
   'PYMODULE'),
  ('numpy.lib.shape_base',
   'C:\\Python311\\Lib\\site-packages\\numpy\\lib\\shape_base.py',
   'PYMODULE'),
  ('numpy.lib.nanfunctions',
   'C:\\Python311\\Lib\\site-packages\\numpy\\lib\\nanfunctions.py',
   'PYMODULE'),
  ('numpy.lib.type_check',
   'C:\\Python311\\Lib\\site-packages\\numpy\\lib\\type_check.py',
   'PYMODULE'),
  ('numpy.core.getlimits',
   'C:\\Python311\\Lib\\site-packages\\numpy\\core\\getlimits.py',
   'PYMODULE'),
  ('numpy.core._machar',
   'C:\\Python311\\Lib\\site-packages\\numpy\\core\\_machar.py',
   'PYMODULE'),
  ('numpy.lib.scimath',
   'C:\\Python311\\Lib\\site-packages\\numpy\\lib\\scimath.py',
   'PYMODULE'),
  ('numpy.lib.mixins',
   'C:\\Python311\\Lib\\site-packages\\numpy\\lib\\mixins.py',
   'PYMODULE'),
  ('numpy.dtypes',
   'C:\\Python311\\Lib\\site-packages\\numpy\\dtypes.py',
   'PYMODULE'),
  ('numpy.compat',
   'C:\\Python311\\Lib\\site-packages\\numpy\\compat\\__init__.py',
   'PYMODULE'),
  ('numpy.compat.py3k',
   'C:\\Python311\\Lib\\site-packages\\numpy\\compat\\py3k.py',
   'PYMODULE'),
  ('numpy.core',
   'C:\\Python311\\Lib\\site-packages\\numpy\\core\\__init__.py',
   'PYMODULE'),
  ('numpy.core._add_newdocs_scalars',
   'C:\\Python311\\Lib\\site-packages\\numpy\\core\\_add_newdocs_scalars.py',
   'PYMODULE'),
  ('numpy.core._add_newdocs',
   'C:\\Python311\\Lib\\site-packages\\numpy\\core\\_add_newdocs.py',
   'PYMODULE'),
  ('numpy.core.einsumfunc',
   'C:\\Python311\\Lib\\site-packages\\numpy\\core\\einsumfunc.py',
   'PYMODULE'),
  ('numpy.core.memmap',
   'C:\\Python311\\Lib\\site-packages\\numpy\\core\\memmap.py',
   'PYMODULE'),
  ('numpy.core.defchararray',
   'C:\\Python311\\Lib\\site-packages\\numpy\\core\\defchararray.py',
   'PYMODULE'),
  ('numpy.__config__',
   'C:\\Python311\\Lib\\site-packages\\numpy\\__config__.py',
   'PYMODULE'),
  ('json', 'C:\\Python311\\Lib\\json\\__init__.py', 'PYMODULE'),
  ('json.encoder', 'C:\\Python311\\Lib\\json\\encoder.py', 'PYMODULE'),
  ('json.decoder', 'C:\\Python311\\Lib\\json\\decoder.py', 'PYMODULE'),
  ('json.scanner', 'C:\\Python311\\Lib\\json\\scanner.py', 'PYMODULE'),
  ('yaml', 'C:\\Python311\\Lib\\site-packages\\yaml\\__init__.py', 'PYMODULE'),
  ('yaml.cyaml',
   'C:\\Python311\\Lib\\site-packages\\yaml\\cyaml.py',
   'PYMODULE'),
  ('yaml.resolver',
   'C:\\Python311\\Lib\\site-packages\\yaml\\resolver.py',
   'PYMODULE'),
  ('yaml.representer',
   'C:\\Python311\\Lib\\site-packages\\yaml\\representer.py',
   'PYMODULE'),
  ('yaml.serializer',
   'C:\\Python311\\Lib\\site-packages\\yaml\\serializer.py',
   'PYMODULE'),
  ('yaml.constructor',
   'C:\\Python311\\Lib\\site-packages\\yaml\\constructor.py',
   'PYMODULE'),
  ('yaml.dumper',
   'C:\\Python311\\Lib\\site-packages\\yaml\\dumper.py',
   'PYMODULE'),
  ('yaml.emitter',
   'C:\\Python311\\Lib\\site-packages\\yaml\\emitter.py',
   'PYMODULE'),
  ('yaml.loader',
   'C:\\Python311\\Lib\\site-packages\\yaml\\loader.py',
   'PYMODULE'),
  ('yaml.composer',
   'C:\\Python311\\Lib\\site-packages\\yaml\\composer.py',
   'PYMODULE'),
  ('yaml.parser',
   'C:\\Python311\\Lib\\site-packages\\yaml\\parser.py',
   'PYMODULE'),
  ('yaml.scanner',
   'C:\\Python311\\Lib\\site-packages\\yaml\\scanner.py',
   'PYMODULE'),
  ('yaml.reader',
   'C:\\Python311\\Lib\\site-packages\\yaml\\reader.py',
   'PYMODULE'),
  ('yaml.nodes',
   'C:\\Python311\\Lib\\site-packages\\yaml\\nodes.py',
   'PYMODULE'),
  ('yaml.events',
   'C:\\Python311\\Lib\\site-packages\\yaml\\events.py',
   'PYMODULE'),
  ('yaml.tokens',
   'C:\\Python311\\Lib\\site-packages\\yaml\\tokens.py',
   'PYMODULE'),
  ('yaml.error',
   'C:\\Python311\\Lib\\site-packages\\yaml\\error.py',
   'PYMODULE'),
  ('numpy.array_api',
   'C:\\Python311\\Lib\\site-packages\\numpy\\array_api\\__init__.py',
   'PYMODULE'),
  ('numpy.array_api._utility_functions',
   'C:\\Python311\\Lib\\site-packages\\numpy\\array_api\\_utility_functions.py',
   'PYMODULE'),
  ('numpy.array_api._array_object',
   'C:\\Python311\\Lib\\site-packages\\numpy\\array_api\\_array_object.py',
   'PYMODULE'),
  ('numpy.typing',
   'C:\\Python311\\Lib\\site-packages\\numpy\\typing\\__init__.py',
   'PYMODULE'),
  ('numpy._typing._add_docstring',
   'C:\\Python311\\Lib\\site-packages\\numpy\\_typing\\_add_docstring.py',
   'PYMODULE'),
  ('numpy.array_api._typing',
   'C:\\Python311\\Lib\\site-packages\\numpy\\array_api\\_typing.py',
   'PYMODULE'),
  ('numpy.array_api._statistical_functions',
   'C:\\Python311\\Lib\\site-packages\\numpy\\array_api\\_statistical_functions.py',
   'PYMODULE'),
  ('numpy.array_api._sorting_functions',
   'C:\\Python311\\Lib\\site-packages\\numpy\\array_api\\_sorting_functions.py',
   'PYMODULE'),
  ('numpy.array_api._set_functions',
   'C:\\Python311\\Lib\\site-packages\\numpy\\array_api\\_set_functions.py',
   'PYMODULE'),
  ('numpy.array_api._searching_functions',
   'C:\\Python311\\Lib\\site-packages\\numpy\\array_api\\_searching_functions.py',
   'PYMODULE'),
  ('numpy.array_api._manipulation_functions',
   'C:\\Python311\\Lib\\site-packages\\numpy\\array_api\\_manipulation_functions.py',
   'PYMODULE'),
  ('numpy.array_api.linalg',
   'C:\\Python311\\Lib\\site-packages\\numpy\\array_api\\linalg.py',
   'PYMODULE'),
  ('numpy.array_api._indexing_functions',
   'C:\\Python311\\Lib\\site-packages\\numpy\\array_api\\_indexing_functions.py',
   'PYMODULE'),
  ('numpy.array_api._elementwise_functions',
   'C:\\Python311\\Lib\\site-packages\\numpy\\array_api\\_elementwise_functions.py',
   'PYMODULE'),
  ('numpy.array_api._dtypes',
   'C:\\Python311\\Lib\\site-packages\\numpy\\array_api\\_dtypes.py',
   'PYMODULE'),
  ('numpy.array_api._data_type_functions',
   'C:\\Python311\\Lib\\site-packages\\numpy\\array_api\\_data_type_functions.py',
   'PYMODULE'),
  ('numpy.array_api._creation_functions',
   'C:\\Python311\\Lib\\site-packages\\numpy\\array_api\\_creation_functions.py',
   'PYMODULE'),
  ('numpy.array_api._constants',
   'C:\\Python311\\Lib\\site-packages\\numpy\\array_api\\_constants.py',
   'PYMODULE'),
  ('numpy._distributor_init',
   'C:\\Python311\\Lib\\site-packages\\numpy\\_distributor_init.py',
   'PYMODULE'),
  ('numpy.version',
   'C:\\Python311\\Lib\\site-packages\\numpy\\version.py',
   'PYMODULE'),
  ('numpy.exceptions',
   'C:\\Python311\\Lib\\site-packages\\numpy\\exceptions.py',
   'PYMODULE'),
  ('numpy._globals',
   'C:\\Python311\\Lib\\site-packages\\numpy\\_globals.py',
   'PYMODULE'),
  ('xlsxwriter',
   'C:\\Python311\\Lib\\site-packages\\xlsxwriter\\__init__.py',
   'PYMODULE'),
  ('xlsxwriter.workbook',
   'C:\\Python311\\Lib\\site-packages\\xlsxwriter\\workbook.py',
   'PYMODULE'),
  ('xlsxwriter.exceptions',
   'C:\\Python311\\Lib\\site-packages\\xlsxwriter\\exceptions.py',
   'PYMODULE'),
  ('xlsxwriter.chart_stock',
   'C:\\Python311\\Lib\\site-packages\\xlsxwriter\\chart_stock.py',
   'PYMODULE'),
  ('xlsxwriter.chart_scatter',
   'C:\\Python311\\Lib\\site-packages\\xlsxwriter\\chart_scatter.py',
   'PYMODULE'),
  ('xlsxwriter.chart_radar',
   'C:\\Python311\\Lib\\site-packages\\xlsxwriter\\chart_radar.py',
   'PYMODULE'),
  ('xlsxwriter.chart_line',
   'C:\\Python311\\Lib\\site-packages\\xlsxwriter\\chart_line.py',
   'PYMODULE'),
  ('xlsxwriter.chart_doughnut',
   'C:\\Python311\\Lib\\site-packages\\xlsxwriter\\chart_doughnut.py',
   'PYMODULE'),
  ('xlsxwriter.chart_column',
   'C:\\Python311\\Lib\\site-packages\\xlsxwriter\\chart_column.py',
   'PYMODULE'),
  ('xlsxwriter.chart_bar',
   'C:\\Python311\\Lib\\site-packages\\xlsxwriter\\chart_bar.py',
   'PYMODULE'),
  ('xlsxwriter.chart_area',
   'C:\\Python311\\Lib\\site-packages\\xlsxwriter\\chart_area.py',
   'PYMODULE'),
  ('xlsxwriter.utility',
   'C:\\Python311\\Lib\\site-packages\\xlsxwriter\\utility.py',
   'PYMODULE'),
  ('xlsxwriter.packager',
   'C:\\Python311\\Lib\\site-packages\\xlsxwriter\\packager.py',
   'PYMODULE'),
  ('xlsxwriter.comments',
   'C:\\Python311\\Lib\\site-packages\\xlsxwriter\\comments.py',
   'PYMODULE'),
  ('xlsxwriter.table',
   'C:\\Python311\\Lib\\site-packages\\xlsxwriter\\table.py',
   'PYMODULE'),
  ('xlsxwriter.vml',
   'C:\\Python311\\Lib\\site-packages\\xlsxwriter\\vml.py',
   'PYMODULE'),
  ('xlsxwriter.theme',
   'C:\\Python311\\Lib\\site-packages\\xlsxwriter\\theme.py',
   'PYMODULE'),
  ('xlsxwriter.styles',
   'C:\\Python311\\Lib\\site-packages\\xlsxwriter\\styles.py',
   'PYMODULE'),
  ('xlsxwriter.relationships',
   'C:\\Python311\\Lib\\site-packages\\xlsxwriter\\relationships.py',
   'PYMODULE'),
  ('xlsxwriter.metadata',
   'C:\\Python311\\Lib\\site-packages\\xlsxwriter\\metadata.py',
   'PYMODULE'),
  ('xlsxwriter.custom',
   'C:\\Python311\\Lib\\site-packages\\xlsxwriter\\custom.py',
   'PYMODULE'),
  ('xlsxwriter.core',
   'C:\\Python311\\Lib\\site-packages\\xlsxwriter\\core.py',
   'PYMODULE'),
  ('xlsxwriter.contenttypes',
   'C:\\Python311\\Lib\\site-packages\\xlsxwriter\\contenttypes.py',
   'PYMODULE'),
  ('xlsxwriter.app',
   'C:\\Python311\\Lib\\site-packages\\xlsxwriter\\app.py',
   'PYMODULE'),
  ('xlsxwriter.format',
   'C:\\Python311\\Lib\\site-packages\\xlsxwriter\\format.py',
   'PYMODULE'),
  ('xlsxwriter.sharedstrings',
   'C:\\Python311\\Lib\\site-packages\\xlsxwriter\\sharedstrings.py',
   'PYMODULE'),
  ('xlsxwriter.chartsheet',
   'C:\\Python311\\Lib\\site-packages\\xlsxwriter\\chartsheet.py',
   'PYMODULE'),
  ('xlsxwriter.drawing',
   'C:\\Python311\\Lib\\site-packages\\xlsxwriter\\drawing.py',
   'PYMODULE'),
  ('xlsxwriter.shape',
   'C:\\Python311\\Lib\\site-packages\\xlsxwriter\\shape.py',
   'PYMODULE'),
  ('xlsxwriter.worksheet',
   'C:\\Python311\\Lib\\site-packages\\xlsxwriter\\worksheet.py',
   'PYMODULE'),
  ('xlsxwriter.chart_pie',
   'C:\\Python311\\Lib\\site-packages\\xlsxwriter\\chart_pie.py',
   'PYMODULE'),
  ('xlsxwriter.chart',
   'C:\\Python311\\Lib\\site-packages\\xlsxwriter\\chart.py',
   'PYMODULE'),
  ('xlsxwriter.xmlwriter',
   'C:\\Python311\\Lib\\site-packages\\xlsxwriter\\xmlwriter.py',
   'PYMODULE'),
  ('subprocess', 'C:\\Python311\\Lib\\subprocess.py', 'PYMODULE'),
  ('logging', 'C:\\Python311\\Lib\\logging\\__init__.py', 'PYMODULE'),
  ('asyncio', 'C:\\Python311\\Lib\\asyncio\\__init__.py', 'PYMODULE'),
  ('asyncio.unix_events',
   'C:\\Python311\\Lib\\asyncio\\unix_events.py',
   'PYMODULE'),
  ('asyncio.log', 'C:\\Python311\\Lib\\asyncio\\log.py', 'PYMODULE'),
  ('asyncio.windows_events',
   'C:\\Python311\\Lib\\asyncio\\windows_events.py',
   'PYMODULE'),
  ('asyncio.windows_utils',
   'C:\\Python311\\Lib\\asyncio\\windows_utils.py',
   'PYMODULE'),
  ('asyncio.selector_events',
   'C:\\Python311\\Lib\\asyncio\\selector_events.py',
   'PYMODULE'),
  ('asyncio.proactor_events',
   'C:\\Python311\\Lib\\asyncio\\proactor_events.py',
   'PYMODULE'),
  ('asyncio.base_subprocess',
   'C:\\Python311\\Lib\\asyncio\\base_subprocess.py',
   'PYMODULE'),
  ('asyncio.threads', 'C:\\Python311\\Lib\\asyncio\\threads.py', 'PYMODULE'),
  ('asyncio.timeouts', 'C:\\Python311\\Lib\\asyncio\\timeouts.py', 'PYMODULE'),
  ('asyncio.taskgroups',
   'C:\\Python311\\Lib\\asyncio\\taskgroups.py',
   'PYMODULE'),
  ('asyncio.subprocess',
   'C:\\Python311\\Lib\\asyncio\\subprocess.py',
   'PYMODULE'),
  ('asyncio.streams', 'C:\\Python311\\Lib\\asyncio\\streams.py', 'PYMODULE'),
  ('asyncio.queues', 'C:\\Python311\\Lib\\asyncio\\queues.py', 'PYMODULE'),
  ('asyncio.runners', 'C:\\Python311\\Lib\\asyncio\\runners.py', 'PYMODULE'),
  ('asyncio.base_events',
   'C:\\Python311\\Lib\\asyncio\\base_events.py',
   'PYMODULE'),
  ('concurrent.futures',
   'C:\\Python311\\Lib\\concurrent\\futures\\__init__.py',
   'PYMODULE'),
  ('concurrent.futures.thread',
   'C:\\Python311\\Lib\\concurrent\\futures\\thread.py',
   'PYMODULE'),
  ('concurrent.futures.process',
   'C:\\Python311\\Lib\\concurrent\\futures\\process.py',
   'PYMODULE'),
  ('concurrent.futures._base',
   'C:\\Python311\\Lib\\concurrent\\futures\\_base.py',
   'PYMODULE'),
  ('concurrent', 'C:\\Python311\\Lib\\concurrent\\__init__.py', 'PYMODULE'),
  ('asyncio.trsock', 'C:\\Python311\\Lib\\asyncio\\trsock.py', 'PYMODULE'),
  ('asyncio.staggered',
   'C:\\Python311\\Lib\\asyncio\\staggered.py',
   'PYMODULE'),
  ('asyncio.tasks', 'C:\\Python311\\Lib\\asyncio\\tasks.py', 'PYMODULE'),
  ('asyncio.locks', 'C:\\Python311\\Lib\\asyncio\\locks.py', 'PYMODULE'),
  ('asyncio.base_tasks',
   'C:\\Python311\\Lib\\asyncio\\base_tasks.py',
   'PYMODULE'),
  ('asyncio.mixins', 'C:\\Python311\\Lib\\asyncio\\mixins.py', 'PYMODULE'),
  ('asyncio.sslproto', 'C:\\Python311\\Lib\\asyncio\\sslproto.py', 'PYMODULE'),
  ('asyncio.transports',
   'C:\\Python311\\Lib\\asyncio\\transports.py',
   'PYMODULE'),
  ('asyncio.protocols',
   'C:\\Python311\\Lib\\asyncio\\protocols.py',
   'PYMODULE'),
  ('asyncio.futures', 'C:\\Python311\\Lib\\asyncio\\futures.py', 'PYMODULE'),
  ('asyncio.base_futures',
   'C:\\Python311\\Lib\\asyncio\\base_futures.py',
   'PYMODULE'),
  ('asyncio.exceptions',
   'C:\\Python311\\Lib\\asyncio\\exceptions.py',
   'PYMODULE'),
  ('asyncio.events', 'C:\\Python311\\Lib\\asyncio\\events.py', 'PYMODULE'),
  ('asyncio.format_helpers',
   'C:\\Python311\\Lib\\asyncio\\format_helpers.py',
   'PYMODULE'),
  ('asyncio.coroutines',
   'C:\\Python311\\Lib\\asyncio\\coroutines.py',
   'PYMODULE'),
  ('asyncio.constants',
   'C:\\Python311\\Lib\\asyncio\\constants.py',
   'PYMODULE'),
  ('willump',
   'C:\\Python311\\Lib\\site-packages\\willump\\__init__.py',
   'PYMODULE'),
  ('willump.willump',
   'C:\\Python311\\Lib\\site-packages\\willump\\willump.py',
   'PYMODULE'),
  ('willump.nunu',
   'C:\\Python311\\Lib\\site-packages\\willump\\nunu.py',
   'PYMODULE'),
  ('cryptography.hazmat.primitives.asymmetric.rsa',
   'C:\\Python311\\Lib\\site-packages\\cryptography\\hazmat\\primitives\\asymmetric\\rsa.py',
   'PYMODULE'),
  ('cryptography.hazmat.backends.openssl.backend',
   'C:\\Python311\\Lib\\site-packages\\cryptography\\hazmat\\backends\\openssl\\backend.py',
   'PYMODULE'),
  ('cryptography.hazmat.primitives.serialization.pkcs12',
   'C:\\Python311\\Lib\\site-packages\\cryptography\\hazmat\\primitives\\serialization\\pkcs12.py',
   'PYMODULE'),
  ('cryptography.hazmat.primitives.serialization.ssh',
   'C:\\Python311\\Lib\\site-packages\\cryptography\\hazmat\\primitives\\serialization\\ssh.py',
   'PYMODULE'),
  ('cryptography.hazmat.primitives.ciphers.modes',
   'C:\\Python311\\Lib\\site-packages\\cryptography\\hazmat\\primitives\\ciphers\\modes.py',
   'PYMODULE'),
  ('cryptography.hazmat.primitives._cipheralgorithm',
   'C:\\Python311\\Lib\\site-packages\\cryptography\\hazmat\\primitives\\_cipheralgorithm.py',
   'PYMODULE'),
  ('cryptography.hazmat.primitives.ciphers.algorithms',
   'C:\\Python311\\Lib\\site-packages\\cryptography\\hazmat\\primitives\\ciphers\\algorithms.py',
   'PYMODULE'),
  ('cryptography.hazmat.primitives.ciphers',
   'C:\\Python311\\Lib\\site-packages\\cryptography\\hazmat\\primitives\\ciphers\\__init__.py',
   'PYMODULE'),
  ('cryptography.hazmat.primitives.ciphers.base',
   'C:\\Python311\\Lib\\site-packages\\cryptography\\hazmat\\primitives\\ciphers\\base.py',
   'PYMODULE'),
  ('cryptography.hazmat.primitives.asymmetric.types',
   'C:\\Python311\\Lib\\site-packages\\cryptography\\hazmat\\primitives\\asymmetric\\types.py',
   'PYMODULE'),
  ('cryptography.hazmat.primitives.asymmetric.padding',
   'C:\\Python311\\Lib\\site-packages\\cryptography\\hazmat\\primitives\\asymmetric\\padding.py',
   'PYMODULE'),
  ('cryptography.hazmat.primitives.asymmetric.x25519',
   'C:\\Python311\\Lib\\site-packages\\cryptography\\hazmat\\primitives\\asymmetric\\x25519.py',
   'PYMODULE'),
  ('cryptography.hazmat.primitives.asymmetric.x448',
   'C:\\Python311\\Lib\\site-packages\\cryptography\\hazmat\\primitives\\asymmetric\\x448.py',
   'PYMODULE'),
  ('cryptography.hazmat.primitives.asymmetric.ed25519',
   'C:\\Python311\\Lib\\site-packages\\cryptography\\hazmat\\primitives\\asymmetric\\ed25519.py',
   'PYMODULE'),
  ('cryptography.hazmat.primitives.asymmetric.ed448',
   'C:\\Python311\\Lib\\site-packages\\cryptography\\hazmat\\primitives\\asymmetric\\ed448.py',
   'PYMODULE'),
  ('cryptography.hazmat.primitives.asymmetric.ec',
   'C:\\Python311\\Lib\\site-packages\\cryptography\\hazmat\\primitives\\asymmetric\\ec.py',
   'PYMODULE'),
  ('cryptography.hazmat._oid',
   'C:\\Python311\\Lib\\site-packages\\cryptography\\hazmat\\_oid.py',
   'PYMODULE'),
  ('cryptography.hazmat',
   'C:\\Python311\\Lib\\site-packages\\cryptography\\hazmat\\__init__.py',
   'PYMODULE'),
  ('cryptography.hazmat.primitives.asymmetric.dsa',
   'C:\\Python311\\Lib\\site-packages\\cryptography\\hazmat\\primitives\\asymmetric\\dsa.py',
   'PYMODULE'),
  ('cryptography.hazmat.primitives.asymmetric.dh',
   'C:\\Python311\\Lib\\site-packages\\cryptography\\hazmat\\primitives\\asymmetric\\dh.py',
   'PYMODULE'),
  ('cryptography.hazmat.bindings.openssl.binding',
   'C:\\Python311\\Lib\\site-packages\\cryptography\\hazmat\\bindings\\openssl\\binding.py',
   'PYMODULE'),
  ('cryptography.hazmat.bindings.openssl._conditional',
   'C:\\Python311\\Lib\\site-packages\\cryptography\\hazmat\\bindings\\openssl\\_conditional.py',
   'PYMODULE'),
  ('cryptography.hazmat.bindings.openssl',
   'C:\\Python311\\Lib\\site-packages\\cryptography\\hazmat\\bindings\\openssl\\__init__.py',
   'PYMODULE'),
  ('cryptography.hazmat.bindings',
   'C:\\Python311\\Lib\\site-packages\\cryptography\\hazmat\\bindings\\__init__.py',
   'PYMODULE'),
  ('cryptography.hazmat.backends.openssl.rsa',
   'C:\\Python311\\Lib\\site-packages\\cryptography\\hazmat\\backends\\openssl\\rsa.py',
   'PYMODULE'),
  ('cryptography.hazmat.backends.openssl.utils',
   'C:\\Python311\\Lib\\site-packages\\cryptography\\hazmat\\backends\\openssl\\utils.py',
   'PYMODULE'),
  ('cryptography.hazmat.backends.openssl.ec',
   'C:\\Python311\\Lib\\site-packages\\cryptography\\hazmat\\backends\\openssl\\ec.py',
   'PYMODULE'),
  ('cryptography.hazmat.backends.openssl.cmac',
   'C:\\Python311\\Lib\\site-packages\\cryptography\\hazmat\\backends\\openssl\\cmac.py',
   'PYMODULE'),
  ('cryptography.hazmat.primitives.constant_time',
   'C:\\Python311\\Lib\\site-packages\\cryptography\\hazmat\\primitives\\constant_time.py',
   'PYMODULE'),
  ('cryptography.hazmat.backends.openssl.ciphers',
   'C:\\Python311\\Lib\\site-packages\\cryptography\\hazmat\\backends\\openssl\\ciphers.py',
   'PYMODULE'),
  ('cryptography.hazmat.backends.openssl.aead',
   'C:\\Python311\\Lib\\site-packages\\cryptography\\hazmat\\backends\\openssl\\aead.py',
   'PYMODULE'),
  ('cryptography.hazmat.primitives.ciphers.aead',
   'C:\\Python311\\Lib\\site-packages\\cryptography\\hazmat\\primitives\\ciphers\\aead.py',
   'PYMODULE'),
  ('cryptography.hazmat.backends.openssl',
   'C:\\Python311\\Lib\\site-packages\\cryptography\\hazmat\\backends\\openssl\\__init__.py',
   'PYMODULE'),
  ('cryptography.hazmat.backends',
   'C:\\Python311\\Lib\\site-packages\\cryptography\\hazmat\\backends\\__init__.py',
   'PYMODULE'),
  ('cryptography.exceptions',
   'C:\\Python311\\Lib\\site-packages\\cryptography\\exceptions.py',
   'PYMODULE'),
  ('cryptography.utils',
   'C:\\Python311\\Lib\\site-packages\\cryptography\\utils.py',
   'PYMODULE'),
  ('cryptography.hazmat.primitives.asymmetric.utils',
   'C:\\Python311\\Lib\\site-packages\\cryptography\\hazmat\\primitives\\asymmetric\\utils.py',
   'PYMODULE'),
  ('cryptography.hazmat.primitives._asymmetric',
   'C:\\Python311\\Lib\\site-packages\\cryptography\\hazmat\\primitives\\_asymmetric.py',
   'PYMODULE'),
  ('cryptography.hazmat.primitives._serialization',
   'C:\\Python311\\Lib\\site-packages\\cryptography\\hazmat\\primitives\\_serialization.py',
   'PYMODULE'),
  ('cryptography.hazmat.primitives.asymmetric',
   'C:\\Python311\\Lib\\site-packages\\cryptography\\hazmat\\primitives\\asymmetric\\__init__.py',
   'PYMODULE'),
  ('cryptography.hazmat.primitives.serialization',
   'C:\\Python311\\Lib\\site-packages\\cryptography\\hazmat\\primitives\\serialization\\__init__.py',
   'PYMODULE'),
  ('cryptography.hazmat.primitives.serialization.base',
   'C:\\Python311\\Lib\\site-packages\\cryptography\\hazmat\\primitives\\serialization\\base.py',
   'PYMODULE'),
  ('cryptography.hazmat.primitives.hashes',
   'C:\\Python311\\Lib\\site-packages\\cryptography\\hazmat\\primitives\\hashes.py',
   'PYMODULE'),
  ('cryptography.hazmat.primitives',
   'C:\\Python311\\Lib\\site-packages\\cryptography\\hazmat\\primitives\\__init__.py',
   'PYMODULE'),
  ('cryptography.x509',
   'C:\\Python311\\Lib\\site-packages\\cryptography\\x509\\__init__.py',
   'PYMODULE'),
  ('cryptography.x509.oid',
   'C:\\Python311\\Lib\\site-packages\\cryptography\\x509\\oid.py',
   'PYMODULE'),
  ('cryptography.x509.name',
   'C:\\Python311\\Lib\\site-packages\\cryptography\\x509\\name.py',
   'PYMODULE'),
  ('cryptography.x509.general_name',
   'C:\\Python311\\Lib\\site-packages\\cryptography\\x509\\general_name.py',
   'PYMODULE'),
  ('cryptography.x509.extensions',
   'C:\\Python311\\Lib\\site-packages\\cryptography\\x509\\extensions.py',
   'PYMODULE'),
  ('cryptography.x509.base',
   'C:\\Python311\\Lib\\site-packages\\cryptography\\x509\\base.py',
   'PYMODULE'),
  ('cryptography.x509.certificate_transparency',
   'C:\\Python311\\Lib\\site-packages\\cryptography\\x509\\certificate_transparency.py',
   'PYMODULE'),
  ('cryptography',
   'C:\\Python311\\Lib\\site-packages\\cryptography\\__init__.py',
   'PYMODULE'),
  ('cryptography.hazmat.backends.openssl.decode_asn1',
   'C:\\Python311\\Lib\\site-packages\\cryptography\\hazmat\\backends\\openssl\\decode_asn1.py',
   'PYMODULE'),
  ('cryptography.__about__',
   'C:\\Python311\\Lib\\site-packages\\cryptography\\__about__.py',
   'PYMODULE'),
  ('aiohttp.web',
   'C:\\Python311\\Lib\\site-packages\\aiohttp\\web.py',
   'PYMODULE'),
  ('aiohttp.web_ws',
   'C:\\Python311\\Lib\\site-packages\\aiohttp\\web_ws.py',
   'PYMODULE'),
  ('aiohttp.typedefs',
   'C:\\Python311\\Lib\\site-packages\\aiohttp\\typedefs.py',
   'PYMODULE'),
  ('http.cookies', 'C:\\Python311\\Lib\\http\\cookies.py', 'PYMODULE'),
  ('yarl', 'C:\\Python311\\Lib\\site-packages\\yarl\\__init__.py', 'PYMODULE'),
  ('yarl._url', 'C:\\Python311\\Lib\\site-packages\\yarl\\_url.py', 'PYMODULE'),
  ('yarl._quoting',
   'C:\\Python311\\Lib\\site-packages\\yarl\\_quoting.py',
   'PYMODULE'),
  ('yarl._quoting_py',
   'C:\\Python311\\Lib\\site-packages\\yarl\\_quoting_py.py',
   'PYMODULE'),
  ('idna', 'C:\\Python311\\Lib\\site-packages\\idna\\__init__.py', 'PYMODULE'),
  ('idna.intranges',
   'C:\\Python311\\Lib\\site-packages\\idna\\intranges.py',
   'PYMODULE'),
  ('idna.core', 'C:\\Python311\\Lib\\site-packages\\idna\\core.py', 'PYMODULE'),
  ('idna.uts46data',
   'C:\\Python311\\Lib\\site-packages\\idna\\uts46data.py',
   'PYMODULE'),
  ('idna.idnadata',
   'C:\\Python311\\Lib\\site-packages\\idna\\idnadata.py',
   'PYMODULE'),
  ('idna.package_data',
   'C:\\Python311\\Lib\\site-packages\\idna\\package_data.py',
   'PYMODULE'),
  ('aiohttp.streams',
   'C:\\Python311\\Lib\\site-packages\\aiohttp\\streams.py',
   'PYMODULE'),
  ('aiohttp.base_protocol',
   'C:\\Python311\\Lib\\site-packages\\aiohttp\\base_protocol.py',
   'PYMODULE'),
  ('aiohttp.tcp_helpers',
   'C:\\Python311\\Lib\\site-packages\\aiohttp\\tcp_helpers.py',
   'PYMODULE'),
  ('aiohttp.http',
   'C:\\Python311\\Lib\\site-packages\\aiohttp\\http.py',
   'PYMODULE'),
  ('aiohttp.http_writer',
   'C:\\Python311\\Lib\\site-packages\\aiohttp\\http_writer.py',
   'PYMODULE'),
  ('aiohttp.http_websocket',
   'C:\\Python311\\Lib\\site-packages\\aiohttp\\http_websocket.py',
   'PYMODULE'),
  ('aiohttp.http_parser',
   'C:\\Python311\\Lib\\site-packages\\aiohttp\\http_parser.py',
   'PYMODULE'),
  ('aiohttp.http_exceptions',
   'C:\\Python311\\Lib\\site-packages\\aiohttp\\http_exceptions.py',
   'PYMODULE'),
  ('aiohttp.hdrs',
   'C:\\Python311\\Lib\\site-packages\\aiohttp\\hdrs.py',
   'PYMODULE'),
  ('multidict',
   'C:\\Python311\\Lib\\site-packages\\multidict\\__init__.py',
   'PYMODULE'),
  ('multidict._multidict_py',
   'C:\\Python311\\Lib\\site-packages\\multidict\\_multidict_py.py',
   'PYMODULE'),
  ('multidict._compat',
   'C:\\Python311\\Lib\\site-packages\\multidict\\_compat.py',
   'PYMODULE'),
  ('multidict._abc',
   'C:\\Python311\\Lib\\site-packages\\multidict\\_abc.py',
   'PYMODULE'),
  ('attr', 'C:\\Python311\\Lib\\site-packages\\attr\\__init__.py', 'PYMODULE'),
  ('attr._version_info',
   'C:\\Python311\\Lib\\site-packages\\attr\\_version_info.py',
   'PYMODULE'),
  ('attr._next_gen',
   'C:\\Python311\\Lib\\site-packages\\attr\\_next_gen.py',
   'PYMODULE'),
  ('attr._make',
   'C:\\Python311\\Lib\\site-packages\\attr\\_make.py',
   'PYMODULE'),
  ('attr._compat',
   'C:\\Python311\\Lib\\site-packages\\attr\\_compat.py',
   'PYMODULE'),
  ('attr._funcs',
   'C:\\Python311\\Lib\\site-packages\\attr\\_funcs.py',
   'PYMODULE'),
  ('attr._cmp', 'C:\\Python311\\Lib\\site-packages\\attr\\_cmp.py', 'PYMODULE'),
  ('attr.validators',
   'C:\\Python311\\Lib\\site-packages\\attr\\validators.py',
   'PYMODULE'),
  ('attr.filters',
   'C:\\Python311\\Lib\\site-packages\\attr\\filters.py',
   'PYMODULE'),
  ('attr.exceptions',
   'C:\\Python311\\Lib\\site-packages\\attr\\exceptions.py',
   'PYMODULE'),
  ('attr.converters',
   'C:\\Python311\\Lib\\site-packages\\attr\\converters.py',
   'PYMODULE'),
  ('attr.setters',
   'C:\\Python311\\Lib\\site-packages\\attr\\setters.py',
   'PYMODULE'),
  ('attr._config',
   'C:\\Python311\\Lib\\site-packages\\attr\\_config.py',
   'PYMODULE'),
  ('async_timeout',
   'C:\\Python311\\Lib\\site-packages\\async_timeout\\__init__.py',
   'PYMODULE'),
  ('aiohttp.web_urldispatcher',
   'C:\\Python311\\Lib\\site-packages\\aiohttp\\web_urldispatcher.py',
   'PYMODULE'),
  ('aiohttp.web_server',
   'C:\\Python311\\Lib\\site-packages\\aiohttp\\web_server.py',
   'PYMODULE'),
  ('aiohttp.web_runner',
   'C:\\Python311\\Lib\\site-packages\\aiohttp\\web_runner.py',
   'PYMODULE'),
  ('aiohttp.web_routedef',
   'C:\\Python311\\Lib\\site-packages\\aiohttp\\web_routedef.py',
   'PYMODULE'),
  ('aiohttp.web_response',
   'C:\\Python311\\Lib\\site-packages\\aiohttp\\web_response.py',
   'PYMODULE'),
  ('aiohttp.payload',
   'C:\\Python311\\Lib\\site-packages\\aiohttp\\payload.py',
   'PYMODULE'),
  ('aiohttp.web_request',
   'C:\\Python311\\Lib\\site-packages\\aiohttp\\web_request.py',
   'PYMODULE'),
  ('aiohttp.multipart',
   'C:\\Python311\\Lib\\site-packages\\aiohttp\\multipart.py',
   'PYMODULE'),
  ('aiohttp.client_reqrep',
   'C:\\Python311\\Lib\\site-packages\\aiohttp\\client_reqrep.py',
   'PYMODULE'),
  ('aiohttp.tracing',
   'C:\\Python311\\Lib\\site-packages\\aiohttp\\tracing.py',
   'PYMODULE'),
  ('aiosignal',
   'C:\\Python311\\Lib\\site-packages\\aiosignal\\__init__.py',
   'PYMODULE'),
  ('frozenlist',
   'C:\\Python311\\Lib\\site-packages\\frozenlist\\__init__.py',
   'PYMODULE'),
  ('aiohttp.connector',
   'C:\\Python311\\Lib\\site-packages\\aiohttp\\connector.py',
   'PYMODULE'),
  ('aiohttp.resolver',
   'C:\\Python311\\Lib\\site-packages\\aiohttp\\resolver.py',
   'PYMODULE'),
  ('aiohttp.locks',
   'C:\\Python311\\Lib\\site-packages\\aiohttp\\locks.py',
   'PYMODULE'),
  ('aiohttp.client_proto',
   'C:\\Python311\\Lib\\site-packages\\aiohttp\\client_proto.py',
   'PYMODULE'),
  ('aiohttp.client',
   'C:\\Python311\\Lib\\site-packages\\aiohttp\\client.py',
   'PYMODULE'),
  ('charset_normalizer',
   'C:\\Python311\\Lib\\site-packages\\charset_normalizer\\__init__.py',
   'PYMODULE'),
  ('charset_normalizer.version',
   'C:\\Python311\\Lib\\site-packages\\charset_normalizer\\version.py',
   'PYMODULE'),
  ('charset_normalizer.utils',
   'C:\\Python311\\Lib\\site-packages\\charset_normalizer\\utils.py',
   'PYMODULE'),
  ('charset_normalizer.constant',
   'C:\\Python311\\Lib\\site-packages\\charset_normalizer\\constant.py',
   'PYMODULE'),
  ('charset_normalizer.assets',
   'C:\\Python311\\Lib\\site-packages\\charset_normalizer\\assets\\__init__.py',
   'PYMODULE'),
  ('charset_normalizer.models',
   'C:\\Python311\\Lib\\site-packages\\charset_normalizer\\models.py',
   'PYMODULE'),
  ('charset_normalizer.cd',
   'C:\\Python311\\Lib\\site-packages\\charset_normalizer\\cd.py',
   'PYMODULE'),
  ('charset_normalizer.legacy',
   'C:\\Python311\\Lib\\site-packages\\charset_normalizer\\legacy.py',
   'PYMODULE'),
  ('charset_normalizer.api',
   'C:\\Python311\\Lib\\site-packages\\charset_normalizer\\api.py',
   'PYMODULE'),
  ('aiohttp.cookiejar',
   'C:\\Python311\\Lib\\site-packages\\aiohttp\\cookiejar.py',
   'PYMODULE'),
  ('aiohttp.client_ws',
   'C:\\Python311\\Lib\\site-packages\\aiohttp\\client_ws.py',
   'PYMODULE'),
  ('aiohttp.formdata',
   'C:\\Python311\\Lib\\site-packages\\aiohttp\\formdata.py',
   'PYMODULE'),
  ('aiohttp.client_exceptions',
   'C:\\Python311\\Lib\\site-packages\\aiohttp\\client_exceptions.py',
   'PYMODULE'),
  ('uuid', 'C:\\Python311\\Lib\\uuid.py', 'PYMODULE'),
  ('aiohttp.web_protocol',
   'C:\\Python311\\Lib\\site-packages\\aiohttp\\web_protocol.py',
   'PYMODULE'),
  ('aiohttp.web_middlewares',
   'C:\\Python311\\Lib\\site-packages\\aiohttp\\web_middlewares.py',
   'PYMODULE'),
  ('aiohttp.web_log',
   'C:\\Python311\\Lib\\site-packages\\aiohttp\\web_log.py',
   'PYMODULE'),
  ('aiohttp.web_fileresponse',
   'C:\\Python311\\Lib\\site-packages\\aiohttp\\web_fileresponse.py',
   'PYMODULE'),
  ('aiohttp.web_exceptions',
   'C:\\Python311\\Lib\\site-packages\\aiohttp\\web_exceptions.py',
   'PYMODULE'),
  ('aiohttp.web_app',
   'C:\\Python311\\Lib\\site-packages\\aiohttp\\web_app.py',
   'PYMODULE'),
  ('aiohttp.log',
   'C:\\Python311\\Lib\\site-packages\\aiohttp\\log.py',
   'PYMODULE'),
  ('aiohttp.helpers',
   'C:\\Python311\\Lib\\site-packages\\aiohttp\\helpers.py',
   'PYMODULE'),
  ('aiohttp.abc',
   'C:\\Python311\\Lib\\site-packages\\aiohttp\\abc.py',
   'PYMODULE'),
  ('willump.live_events',
   'C:\\Python311\\Lib\\site-packages\\willump\\live_events.py',
   'PYMODULE'),
  ('willump.proc_utils',
   'C:\\Python311\\Lib\\site-packages\\willump\\proc_utils.py',
   'PYMODULE'),
  ('willump.subscription',
   'C:\\Python311\\Lib\\site-packages\\willump\\subscription.py',
   'PYMODULE'),
  ('aiohttp',
   'C:\\Python311\\Lib\\site-packages\\aiohttp\\__init__.py',
   'PYMODULE'),
  ('aiohttp.worker',
   'C:\\Python311\\Lib\\site-packages\\aiohttp\\worker.py',
   'PYMODULE'),
  ('aiohttp.payload_streamer',
   'C:\\Python311\\Lib\\site-packages\\aiohttp\\payload_streamer.py',
   'PYMODULE')],
 [('python311.dll', 'C:\\Python311\\python311.dll', 'BINARY'),
  ('select.pyd', 'C:\\Python311\\DLLs\\select.pyd', 'EXTENSION'),
  ('_hashlib.pyd', 'C:\\Python311\\DLLs\\_hashlib.pyd', 'EXTENSION'),
  ('_lzma.pyd', 'C:\\Python311\\DLLs\\_lzma.pyd', 'EXTENSION'),
  ('_bz2.pyd', 'C:\\Python311\\DLLs\\_bz2.pyd', 'EXTENSION'),
  ('pyexpat.pyd', 'C:\\Python311\\DLLs\\pyexpat.pyd', 'EXTENSION'),
  ('_ssl.pyd', 'C:\\Python311\\DLLs\\_ssl.pyd', 'EXTENSION'),
  ('unicodedata.pyd', 'C:\\Python311\\DLLs\\unicodedata.pyd', 'EXTENSION'),
  ('_decimal.pyd', 'C:\\Python311\\DLLs\\_decimal.pyd', 'EXTENSION'),
  ('_multiprocessing.pyd',
   'C:\\Python311\\DLLs\\_multiprocessing.pyd',
   'EXTENSION'),
  ('_socket.pyd', 'C:\\Python311\\DLLs\\_socket.pyd', 'EXTENSION'),
  ('_ctypes.pyd', 'C:\\Python311\\DLLs\\_ctypes.pyd', 'EXTENSION'),
  ('_queue.pyd', 'C:\\Python311\\DLLs\\_queue.pyd', 'EXTENSION'),
  ('numpy\\core\\_multiarray_tests.cp311-win_amd64.pyd',
   'C:\\Python311\\Lib\\site-packages\\numpy\\core\\_multiarray_tests.cp311-win_amd64.pyd',
   'EXTENSION'),
  ('numpy\\core\\_multiarray_umath.cp311-win_amd64.pyd',
   'C:\\Python311\\Lib\\site-packages\\numpy\\core\\_multiarray_umath.cp311-win_amd64.pyd',
   'EXTENSION'),
  ('psutil\\_psutil_windows.pyd',
   'C:\\Python311\\Lib\\site-packages\\psutil\\_psutil_windows.pyd',
   'EXTENSION'),
  ('numpy\\linalg\\_umath_linalg.cp311-win_amd64.pyd',
   'C:\\Python311\\Lib\\site-packages\\numpy\\linalg\\_umath_linalg.cp311-win_amd64.pyd',
   'EXTENSION'),
  ('numpy\\random\\mtrand.cp311-win_amd64.pyd',
   'C:\\Python311\\Lib\\site-packages\\numpy\\random\\mtrand.cp311-win_amd64.pyd',
   'EXTENSION'),
  ('numpy\\random\\_sfc64.cp311-win_amd64.pyd',
   'C:\\Python311\\Lib\\site-packages\\numpy\\random\\_sfc64.cp311-win_amd64.pyd',
   'EXTENSION'),
  ('numpy\\random\\_philox.cp311-win_amd64.pyd',
   'C:\\Python311\\Lib\\site-packages\\numpy\\random\\_philox.cp311-win_amd64.pyd',
   'EXTENSION'),
  ('numpy\\random\\_pcg64.cp311-win_amd64.pyd',
   'C:\\Python311\\Lib\\site-packages\\numpy\\random\\_pcg64.cp311-win_amd64.pyd',
   'EXTENSION'),
  ('numpy\\random\\_mt19937.cp311-win_amd64.pyd',
   'C:\\Python311\\Lib\\site-packages\\numpy\\random\\_mt19937.cp311-win_amd64.pyd',
   'EXTENSION'),
  ('numpy\\random\\bit_generator.cp311-win_amd64.pyd',
   'C:\\Python311\\Lib\\site-packages\\numpy\\random\\bit_generator.cp311-win_amd64.pyd',
   'EXTENSION'),
  ('numpy\\random\\_generator.cp311-win_amd64.pyd',
   'C:\\Python311\\Lib\\site-packages\\numpy\\random\\_generator.cp311-win_amd64.pyd',
   'EXTENSION'),
  ('numpy\\random\\_bounded_integers.cp311-win_amd64.pyd',
   'C:\\Python311\\Lib\\site-packages\\numpy\\random\\_bounded_integers.cp311-win_amd64.pyd',
   'EXTENSION'),
  ('numpy\\random\\_common.cp311-win_amd64.pyd',
   'C:\\Python311\\Lib\\site-packages\\numpy\\random\\_common.cp311-win_amd64.pyd',
   'EXTENSION'),
  ('numpy\\fft\\_pocketfft_internal.cp311-win_amd64.pyd',
   'C:\\Python311\\Lib\\site-packages\\numpy\\fft\\_pocketfft_internal.cp311-win_amd64.pyd',
   'EXTENSION'),
  ('yaml\\_yaml.cp311-win_amd64.pyd',
   'C:\\Python311\\Lib\\site-packages\\yaml\\_yaml.cp311-win_amd64.pyd',
   'EXTENSION'),
  ('_overlapped.pyd', 'C:\\Python311\\DLLs\\_overlapped.pyd', 'EXTENSION'),
  ('_asyncio.pyd', 'C:\\Python311\\DLLs\\_asyncio.pyd', 'EXTENSION'),
  ('cryptography\\hazmat\\bindings\\_rust.pyd',
   'C:\\Python311\\Lib\\site-packages\\cryptography\\hazmat\\bindings\\_rust.pyd',
   'EXTENSION'),
  ('_cffi_backend.cp311-win_amd64.pyd',
   'C:\\Python311\\Lib\\site-packages\\_cffi_backend.cp311-win_amd64.pyd',
   'EXTENSION'),
  ('yarl\\_quoting_c.cp311-win_amd64.pyd',
   'C:\\Python311\\Lib\\site-packages\\yarl\\_quoting_c.cp311-win_amd64.pyd',
   'EXTENSION'),
  ('aiohttp\\_http_writer.cp311-win_amd64.pyd',
   'C:\\Python311\\Lib\\site-packages\\aiohttp\\_http_writer.cp311-win_amd64.pyd',
   'EXTENSION'),
  ('aiohttp\\_websocket.cp311-win_amd64.pyd',
   'C:\\Python311\\Lib\\site-packages\\aiohttp\\_websocket.cp311-win_amd64.pyd',
   'EXTENSION'),
  ('aiohttp\\_http_parser.cp311-win_amd64.pyd',
   'C:\\Python311\\Lib\\site-packages\\aiohttp\\_http_parser.cp311-win_amd64.pyd',
   'EXTENSION'),
  ('multidict\\_multidict.cp311-win_amd64.pyd',
   'C:\\Python311\\Lib\\site-packages\\multidict\\_multidict.cp311-win_amd64.pyd',
   'EXTENSION'),
  ('frozenlist\\_frozenlist.cp311-win_amd64.pyd',
   'C:\\Python311\\Lib\\site-packages\\frozenlist\\_frozenlist.cp311-win_amd64.pyd',
   'EXTENSION'),
  ('charset_normalizer\\md__mypyc.cp311-win_amd64.pyd',
   'C:\\Python311\\Lib\\site-packages\\charset_normalizer\\md__mypyc.cp311-win_amd64.pyd',
   'EXTENSION'),
  ('charset_normalizer\\md.cp311-win_amd64.pyd',
   'C:\\Python311\\Lib\\site-packages\\charset_normalizer\\md.cp311-win_amd64.pyd',
   'EXTENSION'),
  ('_uuid.pyd', 'C:\\Python311\\DLLs\\_uuid.pyd', 'EXTENSION'),
  ('aiohttp\\_helpers.cp311-win_amd64.pyd',
   'C:\\Python311\\Lib\\site-packages\\aiohttp\\_helpers.cp311-win_amd64.pyd',
   'EXTENSION'),
  ('api-ms-win-crt-math-l1-1-0.dll',
   'C:\\Program Files\\Java\\jdk-19\\bin\\api-ms-win-crt-math-l1-1-0.dll',
   'BINARY'),
  ('api-ms-win-crt-time-l1-1-0.dll',
   'C:\\Program Files\\Java\\jdk-19\\bin\\api-ms-win-crt-time-l1-1-0.dll',
   'BINARY'),
  ('api-ms-win-crt-filesystem-l1-1-0.dll',
   'C:\\Program Files\\Java\\jdk-19\\bin\\api-ms-win-crt-filesystem-l1-1-0.dll',
   'BINARY'),
  ('api-ms-win-crt-locale-l1-1-0.dll',
   'C:\\Program Files\\Java\\jdk-19\\bin\\api-ms-win-crt-locale-l1-1-0.dll',
   'BINARY'),
  ('api-ms-win-crt-string-l1-1-0.dll',
   'C:\\Program Files\\Java\\jdk-19\\bin\\api-ms-win-crt-string-l1-1-0.dll',
   'BINARY'),
  ('api-ms-win-crt-heap-l1-1-0.dll',
   'C:\\Program Files\\Java\\jdk-19\\bin\\api-ms-win-crt-heap-l1-1-0.dll',
   'BINARY'),
  ('VCRUNTIME140.dll', 'C:\\Python311\\VCRUNTIME140.dll', 'BINARY'),
  ('api-ms-win-crt-convert-l1-1-0.dll',
   'C:\\Program Files\\Java\\jdk-19\\bin\\api-ms-win-crt-convert-l1-1-0.dll',
   'BINARY'),
  ('api-ms-win-crt-environment-l1-1-0.dll',
   'C:\\Program '
   'Files\\Java\\jdk-19\\bin\\api-ms-win-crt-environment-l1-1-0.dll',
   'BINARY'),
  ('api-ms-win-crt-stdio-l1-1-0.dll',
   'C:\\Program Files\\Java\\jdk-19\\bin\\api-ms-win-crt-stdio-l1-1-0.dll',
   'BINARY'),
  ('api-ms-win-crt-process-l1-1-0.dll',
   'C:\\Program Files\\Java\\jdk-19\\bin\\api-ms-win-crt-process-l1-1-0.dll',
   'BINARY'),
  ('api-ms-win-crt-conio-l1-1-0.dll',
   'C:\\Program Files\\Java\\jdk-19\\bin\\api-ms-win-crt-conio-l1-1-0.dll',
   'BINARY'),
  ('api-ms-win-crt-runtime-l1-1-0.dll',
   'C:\\Program Files\\Java\\jdk-19\\bin\\api-ms-win-crt-runtime-l1-1-0.dll',
   'BINARY'),
  ('libcrypto-1_1.dll', 'C:\\Python311\\DLLs\\libcrypto-1_1.dll', 'BINARY'),
  ('api-ms-win-crt-utility-l1-1-0.dll',
   'C:\\Program Files\\Java\\jdk-19\\bin\\api-ms-win-crt-utility-l1-1-0.dll',
   'BINARY'),
  ('libssl-1_1.dll', 'C:\\Python311\\DLLs\\libssl-1_1.dll', 'BINARY'),
  ('libffi-8.dll', 'C:\\Python311\\DLLs\\libffi-8.dll', 'BINARY'),
  ('numpy.libs\\libopenblas64__v0.3.23-293-gc2f4bdbb-gcc_10_3_0-2bde3a66a51006b2b53eb373ff767a3f.dll',
   'C:\\Python311\\Lib\\site-packages\\numpy.libs\\libopenblas64__v0.3.23-293-gc2f4bdbb-gcc_10_3_0-2bde3a66a51006b2b53eb373ff767a3f.dll',
   'BINARY'),
  ('python3.dll', 'C:\\Python311\\python3.dll', 'BINARY'),
  ('ucrtbase.dll',
   'C:\\Program Files\\Java\\jdk-19\\bin\\ucrtbase.dll',
   'BINARY'),
  ('api-ms-win-crt-private-l1-1-0.dll',
   'C:\\Program Files\\Java\\jdk-19\\bin\\api-ms-win-crt-private-l1-1-0.dll',
   'BINARY'),
  ('api-ms-win-core-namedpipe-l1-1-0.dll',
   'C:\\Program Files\\Java\\jdk-19\\bin\\api-ms-win-core-namedpipe-l1-1-0.dll',
   'BINARY'),
  ('api-ms-win-core-libraryloader-l1-1-0.dll',
   'C:\\Program '
   'Files\\Java\\jdk-19\\bin\\api-ms-win-core-libraryloader-l1-1-0.dll',
   'BINARY'),
  ('api-ms-win-core-errorhandling-l1-1-0.dll',
   'C:\\Program '
   'Files\\Java\\jdk-19\\bin\\api-ms-win-core-errorhandling-l1-1-0.dll',
   'BINARY'),
  ('api-ms-win-core-sysinfo-l1-1-0.dll',
   'C:\\Program Files\\Java\\jdk-19\\bin\\api-ms-win-core-sysinfo-l1-1-0.dll',
   'BINARY'),
  ('api-ms-win-core-rtlsupport-l1-1-0.dll',
   'C:\\Program '
   'Files\\Java\\jdk-19\\bin\\api-ms-win-core-rtlsupport-l1-1-0.dll',
   'BINARY'),
  ('api-ms-win-core-synch-l1-1-0.dll',
   'C:\\Program Files\\Java\\jdk-19\\bin\\api-ms-win-core-synch-l1-1-0.dll',
   'BINARY'),
  ('api-ms-win-core-localization-l1-2-0.dll',
   'C:\\Program '
   'Files\\Java\\jdk-19\\bin\\api-ms-win-core-localization-l1-2-0.dll',
   'BINARY'),
  ('api-ms-win-core-timezone-l1-1-0.dll',
   'C:\\Program Files\\Java\\jdk-19\\bin\\api-ms-win-core-timezone-l1-1-0.dll',
   'BINARY'),
  ('api-ms-win-core-processenvironment-l1-1-0.dll',
   'C:\\Program '
   'Files\\Java\\jdk-19\\bin\\api-ms-win-core-processenvironment-l1-1-0.dll',
   'BINARY'),
  ('api-ms-win-core-synch-l1-2-0.dll',
   'C:\\Program Files\\Java\\jdk-19\\bin\\api-ms-win-core-synch-l1-2-0.dll',
   'BINARY'),
  ('api-ms-win-core-processthreads-l1-1-1.dll',
   'C:\\Program '
   'Files\\Java\\jdk-19\\bin\\api-ms-win-core-processthreads-l1-1-1.dll',
   'BINARY'),
  ('api-ms-win-core-profile-l1-1-0.dll',
   'C:\\Program Files\\Java\\jdk-19\\bin\\api-ms-win-core-profile-l1-1-0.dll',
   'BINARY'),
  ('api-ms-win-core-file-l1-2-0.dll',
   'C:\\Program Files\\Java\\jdk-19\\bin\\api-ms-win-core-file-l1-2-0.dll',
   'BINARY'),
  ('api-ms-win-core-interlocked-l1-1-0.dll',
   'C:\\Program '
   'Files\\Java\\jdk-19\\bin\\api-ms-win-core-interlocked-l1-1-0.dll',
   'BINARY'),
  ('api-ms-win-core-heap-l1-1-0.dll',
   'C:\\Program Files\\Java\\jdk-19\\bin\\api-ms-win-core-heap-l1-1-0.dll',
   'BINARY'),
  ('api-ms-win-core-console-l1-1-0.dll',
   'C:\\Program Files\\Java\\jdk-19\\bin\\api-ms-win-core-console-l1-1-0.dll',
   'BINARY'),
  ('api-ms-win-core-util-l1-1-0.dll',
   'C:\\Program Files\\Java\\jdk-19\\bin\\api-ms-win-core-util-l1-1-0.dll',
   'BINARY'),
  ('api-ms-win-core-file-l2-1-0.dll',
   'C:\\Program Files\\Java\\jdk-19\\bin\\api-ms-win-core-file-l2-1-0.dll',
   'BINARY'),
  ('api-ms-win-core-debug-l1-1-0.dll',
   'C:\\Program Files\\Java\\jdk-19\\bin\\api-ms-win-core-debug-l1-1-0.dll',
   'BINARY'),
  ('api-ms-win-core-memory-l1-1-0.dll',
   'C:\\Program Files\\Java\\jdk-19\\bin\\api-ms-win-core-memory-l1-1-0.dll',
   'BINARY'),
  ('api-ms-win-core-string-l1-1-0.dll',
   'C:\\Program Files\\Java\\jdk-19\\bin\\api-ms-win-core-string-l1-1-0.dll',
   'BINARY'),
  ('api-ms-win-core-datetime-l1-1-0.dll',
   'C:\\Program Files\\Java\\jdk-19\\bin\\api-ms-win-core-datetime-l1-1-0.dll',
   'BINARY'),
  ('api-ms-win-core-file-l1-1-0.dll',
   'C:\\Program Files\\Java\\jdk-19\\bin\\api-ms-win-core-file-l1-1-0.dll',
   'BINARY'),
  ('api-ms-win-core-handle-l1-1-0.dll',
   'C:\\Program Files\\Java\\jdk-19\\bin\\api-ms-win-core-handle-l1-1-0.dll',
   'BINARY'),
  ('api-ms-win-core-processthreads-l1-1-0.dll',
   'C:\\Program '
   'Files\\Java\\jdk-19\\bin\\api-ms-win-core-processthreads-l1-1-0.dll',
   'BINARY')],
 [],
 [],
 [('base_library.zip',
   'D:\\code\\chromarose\\chromarose\\build\\main\\base_library.zip',
   'DATA'),
  ('cryptography-41.0.4.dist-info\\RECORD',
   'C:\\Python311\\Lib\\site-packages\\cryptography-41.0.4.dist-info\\RECORD',
   'DATA'),
  ('cryptography-41.0.4.dist-info\\top_level.txt',
   'C:\\Python311\\Lib\\site-packages\\cryptography-41.0.4.dist-info\\top_level.txt',
   'DATA'),
  ('cryptography-41.0.4.dist-info\\METADATA',
   'C:\\Python311\\Lib\\site-packages\\cryptography-41.0.4.dist-info\\METADATA',
   'DATA'),
  ('cryptography-41.0.4.dist-info\\LICENSE',
   'C:\\Python311\\Lib\\site-packages\\cryptography-41.0.4.dist-info\\LICENSE',
   'DATA'),
  ('cryptography-41.0.4.dist-info\\LICENSE.APACHE',
   'C:\\Python311\\Lib\\site-packages\\cryptography-41.0.4.dist-info\\LICENSE.APACHE',
   'DATA'),
  ('cryptography-41.0.4.dist-info\\INSTALLER',
   'C:\\Python311\\Lib\\site-packages\\cryptography-41.0.4.dist-info\\INSTALLER',
   'DATA'),
  ('cryptography-41.0.4.dist-info\\LICENSE.BSD',
   'C:\\Python311\\Lib\\site-packages\\cryptography-41.0.4.dist-info\\LICENSE.BSD',
   'DATA'),
  ('cryptography-41.0.4.dist-info\\WHEEL',
   'C:\\Python311\\Lib\\site-packages\\cryptography-41.0.4.dist-info\\WHEEL',
   'DATA'),
  ('attrs-23.1.0.dist-info\\RECORD',
   'C:\\Python311\\Lib\\site-packages\\attrs-23.1.0.dist-info\\RECORD',
   'DATA'),
  ('attrs-23.1.0.dist-info\\INSTALLER',
   'C:\\Python311\\Lib\\site-packages\\attrs-23.1.0.dist-info\\INSTALLER',
   'DATA'),
  ('attrs-23.1.0.dist-info\\licenses\\LICENSE',
   'C:\\Python311\\Lib\\site-packages\\attrs-23.1.0.dist-info\\licenses\\LICENSE',
   'DATA'),
  ('attrs-23.1.0.dist-info\\WHEEL',
   'C:\\Python311\\Lib\\site-packages\\attrs-23.1.0.dist-info\\WHEEL',
   'DATA'),
  ('attrs-23.1.0.dist-info\\METADATA',
   'C:\\Python311\\Lib\\site-packages\\attrs-23.1.0.dist-info\\METADATA',
   'DATA')])
